(module Wuerth_WR-MM_690367192272_2x11_P2.54x2.54mm_Vertical (layer F.Cu) (tedit 5F839AF0)
  (descr "Wuerth WR-MM series connector, 690367192272 (https://www.we-online.de/katalog/datasheet/690367192272.pdf), generated with kicad-footprint-generator")
  (tags "connector Wuerth Mini Module WR-MM vertical")
  (fp_text reference REF** (at -13.34 -2.43) (layer F.SilkS)
    (effects (font (size 1 1) (thickness 0.15)))
  )
  (fp_text value Wuerth_WR-MM_690367192272_2x11_P2.54x2.54mm_Vertical (at -13.34 4.97) (layer F.Fab)
    (effects (font (size 1 1) (thickness 0.15)))
  )
  (fp_line (start 2.935 -1.23) (end 2.935 3.77) (layer F.Fab) (width 0.1))
  (fp_line (start 2.935 3.77) (end -29.605 3.77) (layer F.Fab) (width 0.1))
  (fp_line (start -29.605 3.77) (end -29.605 -1.23) (layer F.Fab) (width 0.1))
  (fp_line (start -29.605 -1.23) (end 2.935 -1.23) (layer F.Fab) (width 0.1))
  (fp_line (start -29.715 3.88) (end -29.715 -1.34) (layer F.SilkS) (width 0.12))
  (fp_line (start -29.715 -1.34) (end 3.045 -1.34) (layer F.SilkS) (width 0.12))
  (fp_line (start 3.045 -1.34) (end 3.045 3.88) (layer F.SilkS) (width 0.12))
  (fp_line (start 3.045 3.88) (end -29.715 3.88) (layer F.SilkS) (width 0.12))
  (fp_line (start -30.1 -1.73) (end -30.1 4.27) (layer F.CrtYd) (width 0.05))
  (fp_line (start -30.1 4.27) (end 3.43 4.27) (layer F.CrtYd) (width 0.05))
  (fp_line (start 3.43 4.27) (end 3.43 -1.73) (layer F.CrtYd) (width 0.05))
  (fp_line (start 3.43 -1.73) (end -30.1 -1.73) (layer F.CrtYd) (width 0.05))
  (pad 1 thru_hole roundrect (at 0 0) (size 1.35 1.35) (drill 0.85) (layers *.Cu *.Mask) (roundrect_rratio 0.185185))
  (pad 3 thru_hole circle (at -2.54 0) (size 1.35 1.35) (drill 0.85) (layers *.Cu *.Mask))
  (pad 5 thru_hole circle (at -5.08 0) (size 1.35 1.35) (drill 0.85) (layers *.Cu *.Mask))
  (pad 7 thru_hole circle (at -7.62 0) (size 1.35 1.35) (drill 0.85) (layers *.Cu *.Mask))
  (pad 9 thru_hole circle (at -10.16 0) (size 1.35 1.35) (drill 0.85) (layers *.Cu *.Mask))
  (pad 11 thru_hole circle (at -12.7 0) (size 1.35 1.35) (drill 0.85) (layers *.Cu *.Mask))
  (pad 13 thru_hole circle (at -15.24 0) (size 1.35 1.35) (drill 0.85) (layers *.Cu *.Mask))
  (pad 15 thru_hole circle (at -17.78 0) (size 1.35 1.35) (drill 0.85) (layers *.Cu *.Mask))
  (pad 17 thru_hole circle (at -20.32 0) (size 1.35 1.35) (drill 0.85) (layers *.Cu *.Mask))
  (pad 19 thru_hole circle (at -22.86 0) (size 1.35 1.35) (drill 0.85) (layers *.Cu *.Mask))
  (pad 21 thru_hole circle (at -25.4 0) (size 1.35 1.35) (drill 0.85) (layers *.Cu *.Mask))
  (pad 2 thru_hole circle (at -1.27 2.54) (size 1.35 1.35) (drill 0.85) (layers *.Cu *.Mask))
  (pad 4 thru_hole circle (at -3.81 2.54) (size 1.35 1.35) (drill 0.85) (layers *.Cu *.Mask))
  (pad 6 thru_hole circle (at -6.35 2.54) (size 1.35 1.35) (drill 0.85) (layers *.Cu *.Mask))
  (pad 8 thru_hole circle (at -8.89 2.54) (size 1.35 1.35) (drill 0.85) (layers *.Cu *.Mask))
  (pad 10 thru_hole circle (at -11.43 2.54) (size 1.35 1.35) (drill 0.85) (layers *.Cu *.Mask))
  (pad 12 thru_hole circle (at -13.97 2.54) (size 1.35 1.35) (drill 0.85) (layers *.Cu *.Mask))
  (pad 14 thru_hole circle (at -16.51 2.54) (size 1.35 1.35) (drill 0.85) (layers *.Cu *.Mask))
  (pad 16 thru_hole circle (at -19.05 2.54) (size 1.35 1.35) (drill 0.85) (layers *.Cu *.Mask))
  (pad 18 thru_hole circle (at -21.59 2.54) (size 1.35 1.35) (drill 0.85) (layers *.Cu *.Mask))
  (pad 20 thru_hole circle (at -24.13 2.54) (size 1.35 1.35) (drill 0.85) (layers *.Cu *.Mask))
  (pad 22 thru_hole circle (at -26.67 2.54) (size 1.35 1.35) (drill 0.85) (layers *.Cu *.Mask))
  (pad "" np_thru_hole circle (at 1.4 1.8) (size 1.5 1.5) (drill 1.5) (layers *.Cu *.Mask))
  (fp_text user %R (at -13.34 1.27) (layer F.Fab)
    (effects (font (size 1 1) (thickness 0.15)))
  )
  (model ${KISYS3DMOD}/Connector_Wuerth.3dshapes/Wuerth_WR-MM_690367192272_2x11_P2.54x2.54mm_Vertical.wrl
    (at (xyz 0 0 0))
    (scale (xyz 1 1 1))
    (rotate (xyz 0 0 0))
  )
)