(module Wuerth_WR-MM-SMT_690367291676_2x08_P2.54x2.54mm_Vertical (layer F.Cu) (tedit 5F9016D8)
  (descr "Wuerth WR-MM-SMT series connector, 690367291676 (https://www.we-online.de/katalog/datasheet/690367290476.pdf), generated with kicad-footprint-generator")
  (tags "connector Wuerth WR-MM-SMT vertical")
  (attr smd)
  (fp_text reference REF** (at 0 -4.7) (layer F.SilkS)
    (effects (font (size 1 1) (thickness 0.15)))
  )
  (fp_text value Wuerth_WR-MM-SMT_690367291676_2x08_P2.54x2.54mm_Vertical (at 0 4.7) (layer F.Fab)
    (effects (font (size 1 1) (thickness 0.15)))
  )
  (fp_line (start -12.46 -2.5) (end -12.46 2.5) (layer F.Fab) (width 0.1))
  (fp_line (start -12.46 2.5) (end 12.46 2.5) (layer F.Fab) (width 0.1))
  (fp_line (start 12.46 2.5) (end 12.46 -2.5) (layer F.Fab) (width 0.1))
  (fp_line (start 12.46 -2.5) (end -12.46 -2.5) (layer F.Fab) (width 0.1))
  (fp_line (start -10.385 -2.61) (end -12.57 -2.61) (layer F.SilkS) (width 0.12))
  (fp_line (start -12.57 -2.61) (end -12.57 2.61) (layer F.SilkS) (width 0.12))
  (fp_line (start -12.57 2.61) (end -9.115 2.61) (layer F.SilkS) (width 0.12))
  (fp_line (start 10.385 2.61) (end 12.57 2.61) (layer F.SilkS) (width 0.12))
  (fp_line (start 12.57 2.61) (end 12.57 -2.61) (layer F.SilkS) (width 0.12))
  (fp_line (start 12.57 -2.61) (end 9.115 -2.61) (layer F.SilkS) (width 0.12))
  (fp_line (start -12.96 -4) (end -12.96 4) (layer F.CrtYd) (width 0.05))
  (fp_line (start -12.96 4) (end 12.96 4) (layer F.CrtYd) (width 0.05))
  (fp_line (start 12.96 4) (end 12.96 -4) (layer F.CrtYd) (width 0.05))
  (fp_line (start 12.96 -4) (end -12.96 -4) (layer F.CrtYd) (width 0.05))
  (pad 1 smd rect (at -9.525 -2.25) (size 1.5 3) (layers F.Cu F.Mask F.Paste))
  (pad 3 smd rect (at -6.985 -2.25) (size 1.5 3) (layers F.Cu F.Mask F.Paste))
  (pad 5 smd rect (at -4.445 -2.25) (size 1.5 3) (layers F.Cu F.Mask F.Paste))
  (pad 7 smd rect (at -1.905 -2.25) (size 1.5 3) (layers F.Cu F.Mask F.Paste))
  (pad 9 smd rect (at 0.635 -2.25) (size 1.5 3) (layers F.Cu F.Mask F.Paste))
  (pad 11 smd rect (at 3.175 -2.25) (size 1.5 3) (layers F.Cu F.Mask F.Paste))
  (pad 13 smd rect (at 5.715 -2.25) (size 1.5 3) (layers F.Cu F.Mask F.Paste))
  (pad 15 smd rect (at 8.255 -2.25) (size 1.5 3) (layers F.Cu F.Mask F.Paste))
  (pad 2 smd rect (at -8.255 2.25) (size 1.5 3) (layers F.Cu F.Mask F.Paste))
  (pad 4 smd rect (at -5.715 2.25) (size 1.5 3) (layers F.Cu F.Mask F.Paste))
  (pad 6 smd rect (at -3.175 2.25) (size 1.5 3) (layers F.Cu F.Mask F.Paste))
  (pad 8 smd rect (at -0.635 2.25) (size 1.5 3) (layers F.Cu F.Mask F.Paste))
  (pad 10 smd rect (at 1.905 2.25) (size 1.5 3) (layers F.Cu F.Mask F.Paste))
  (pad 12 smd rect (at 4.445 2.25) (size 1.5 3) (layers F.Cu F.Mask F.Paste))
  (pad 14 smd rect (at 6.985 2.25) (size 1.5 3) (layers F.Cu F.Mask F.Paste))
  (pad 16 smd rect (at 9.525 2.25) (size 1.5 3) (layers F.Cu F.Mask F.Paste))
  (fp_text user 1 (at -10.885 -3.21) (layer F.SilkS)
    (effects (font (size 0.8 0.8) (thickness 0.15)))
  )
  (fp_text user 2 (at -9.615 3.21) (layer F.SilkS)
    (effects (font (size 0.8 0.8) (thickness 0.15)))
  )
  (fp_text user %R (at 0 0) (layer F.Fab)
    (effects (font (size 1 1) (thickness 0.15)))
  )
  (model ${KISYS3DMOD}/Connector_Wuerth.3dshapes/Wuerth_WR-MM-SMT_690367291676_2x08_P2.54x2.54mm_Vertical.wrl
    (at (xyz 0 0 0))
    (scale (xyz 1 1 1))
    (rotate (xyz 0 0 0))
  )
)